{
    "key": "group_5aba82032456f",
    "title": "Inventory Widget",
    "fields": [
        {
            "key": "field_5abb7a801f053",
            "label": "Title",
            "name": "inventory_widget_title",
            "type": "text",
            "instructions": "Enter a descriptive title for the events in this widget.",
            "required": 0,
            "conditional_logic": 0,
            "wrapper": {
                "width": "",
                "class": "",
                "id": ""
            },
            "default_value": "",
            "placeholder": "",
            "prepend": "",
            "append": "",
            "maxlength": ""
        },
        {
            "key": "field_5aba821fbeebb",
            "label": "Attraction ID",
            "name": "inventory_widget_attraction_id",
            "type": "text",
            "instructions": "Artists, sports, packages, plays, etc.",
            "required": 0,
            "conditional_logic": 0,
            "wrapper": {
                "width": "",
                "class": "",
                "id": ""
            },
            "default_value": "",
            "placeholder": "",
            "prepend": "",
            "append": "",
            "maxlength": ""
        },
        {
            "key": "field_5abaa50a506e2",
            "label": "Venue ID",
            "name": "inventory_widget_venue_id",
            "type": "text",
            "instructions": "",
            "required": 0,
            "conditional_logic": 0,
            "wrapper": {
                "width": "",
                "class": "",
                "id": ""
            },
            "default_value": "",
            "placeholder": "",
            "prepend": "",
            "append": "",
            "maxlength": ""
        },
        {
            "key": "field_5abaa528506e3",
            "label": "Classification ID",
            "name": "inventory_widget_classification_id",
            "type": "text",
            "instructions": "ID of any segment, genre, sub-genre, type or sub-type.",
            "required": 0,
            "conditional_logic": 0,
            "wrapper": {
                "width": "",
                "class": "",
                "id": ""
            },
            "default_value": "",
            "placeholder": "",
            "prepend": "",
            "append": "",
            "maxlength": ""
        },
        {
            "key": "field_5aba82e9e708e",
            "label": "Keyword",
            "name": "inventory_widget_keyword",
            "type": "text",
            "instructions": "Narrow search by a keyword. Example: Enter an artists upcoming tour name.",
            "required": 0,
            "conditional_logic": 0,
            "wrapper": {
                "width": "",
                "class": "",
                "id": ""
            },
            "default_value": "",
            "placeholder": "",
            "prepend": "",
            "append": "",
            "maxlength": ""
        },
        {
            "key": "field_5abaa5be34ad0",
            "label": "Location Type",
            "name": "inventory_widget_location_type",
            "type": "select",
            "instructions": "Filter by location. Geolocation will find events closest to the user.",
            "required": 0,
            "conditional_logic": 0,
            "wrapper": {
                "width": "",
                "class": "",
                "id": ""
            },
            "choices": {
                "none": "None",
                "country": "Country",
                "dma": "Designated Market Area",
                "geolocation": "Geolocation",
                "market": "Market"
            },
            "default_value": [],
            "allow_null": 0,
            "multiple": 0,
            "ui": 0,
            "ajax": 0,
            "return_format": "value",
            "placeholder": ""
        },
        {
            "key": "field_5abaa7dbab34e",
            "label": "Market ID",
            "name": "inventory_widget_market_id",
            "type": "text",
            "instructions": "",
            "required": 0,
            "conditional_logic": [
                [
                    {
                        "field": "field_5abaa5be34ad0",
                        "operator": "==",
                        "value": "market"
                    }
                ]
            ],
            "wrapper": {
                "width": "",
                "class": "",
                "id": ""
            },
            "default_value": "",
            "placeholder": "",
            "prepend": "",
            "append": "",
            "maxlength": ""
        },
        {
            "key": "field_5abaa7c6ab34d",
            "label": "DMA ID",
            "name": "inventory_widget_dma_id",
            "type": "text",
            "instructions": "",
            "required": 0,
            "conditional_logic": [
                [
                    {
                        "field": "field_5abaa5be34ad0",
                        "operator": "==",
                        "value": "dma"
                    }
                ]
            ],
            "wrapper": {
                "width": "",
                "class": "",
                "id": ""
            },
            "default_value": "",
            "placeholder": "",
            "prepend": "",
            "append": "",
            "maxlength": ""
        },
        {
            "key": "field_5abbb7d2b8416",
            "label": "Country Code",
            "name": "inventory_widget_country_code",
            "type": "text",
            "instructions": "",
            "required": 0,
            "conditional_logic": [
                [
                    {
                        "field": "field_5abaa5be34ad0",
                        "operator": "==",
                        "value": "country"
                    }
                ]
            ],
            "wrapper": {
                "width": "",
                "class": "",
                "id": ""
            },
            "default_value": "",
            "placeholder": "",
            "prepend": "",
            "append": "",
            "maxlength": ""
        },
        {
            "key": "field_5abaa746a3453",
            "label": "Start Date\/Time",
            "name": "inventory_widget_start_date_time",
            "type": "date_time_picker",
            "instructions": "",
            "required": 0,
            "conditional_logic": 0,
            "wrapper": {
                "width": "50",
                "class": "",
                "id": ""
            },
            "display_format": "m\/d\/Y g:i a",
            "return_format": "Y-m-d H:i:s",
            "first_day": 1
        },
        {
            "key": "field_5abaa777a3454",
            "label": "End Date\/Time",
            "name": "inventory_widget_end_date_time",
            "type": "date_time_picker",
            "instructions": "",
            "required": 0,
            "conditional_logic": 0,
            "wrapper": {
                "width": "50",
                "class": "",
                "id": ""
            },
            "display_format": "m\/d\/Y g:i a",
            "return_format": "Y-m-d H:i:s",
            "first_day": 1
        },
        {
            "key": "field_5abbaf29b1eae",
            "label": "Size",
            "name": "inventory_widget_size",
            "type": "number",
            "instructions": "Enter the amount of events you'd like to show. Default is 20. If using geolocation then it's best to set this number to appx 50. Geolocation sorts by relevance so the greater the size of the search the more relevant events the API will find.",
            "required": 0,
            "conditional_logic": 0,
            "wrapper": {
                "width": "",
                "class": "",
                "id": ""
            },
            "default_value": "",
            "placeholder": "",
            "prepend": "",
            "append": "",
            "min": "",
            "max": "",
            "step": ""
        }
    ],
    "location": [
        [
            {
                "param": "post_type",
                "operator": "==",
                "value": "post"
            }
        ],
        [
            {
                "param": "post_template",
                "operator": "==",
                "value": "default"
            }
        ],
        [
            {
                "param": "page_template",
                "operator": "==",
                "value": "page-templates\/homepage.php"
            }
        ],
        [
            {
                "param": "taxonomy",
                "operator": "==",
                "value": "post_tag"
            }
        ],
        [
            {
                "param": "taxonomy",
                "operator": "==",
                "value": "category"
            }
        ]
    ],
    "menu_order": 1,
    "position": "normal",
    "style": "default",
    "label_placement": "top",
    "instruction_placement": "label",
    "hide_on_screen": "",
    "active": 1,
    "description": "",
    "modified": 1523558303
}