{
    "key": "group_54634ab3807d6",
    "title": "Post Type",
    "fields": [
        {
            "key": "field_54634abda8cb8",
            "label": "Post Type",
            "name": "post_type",
            "type": "radio",
            "instructions": "",
            "required": 0,
            "conditional_logic": 0,
            "wrapper": {
                "width": "",
                "class": "",
                "id": ""
            },
            "choices": {
                "article": "article",
                "video": "video",
                "gallery": "gallery",
                "quiz": "quiz",
                "listen": "listen"
            },
            "other_choice": 0,
            "save_other_choice": 0,
            "default_value": "article",
            "layout": "vertical",
            "allow_null": 0,
            "return_format": "value"
        },
        {
            "key": "field_55ba6975f4d8f",
            "label": "Display Byline",
            "name": "display_byline",
            "type": "true_false",
            "instructions": "",
            "required": 0,
            "conditional_logic": 0,
            "wrapper": {
                "width": "",
                "class": "",
                "id": ""
            },
            "message": "",
            "default_value": 0,
            "ui": 0,
            "ui_on_text": "",
            "ui_off_text": ""
        }
    ],
    "location": [
        [
            {
                "param": "post_type",
                "operator": "==",
                "value": "post"
            },
            {
                "param": "post_format",
                "operator": "==",
                "value": "quote"
            }
        ]
    ],
    "menu_order": 0,
    "position": "side",
    "style": "default",
    "label_placement": "top",
    "instruction_placement": "label",
    "hide_on_screen": "",
    "active": 1,
    "description": "",
    "modified": 1523794907
}