{
    "key": "group_5ac8a3861d532",
    "title": "Featured Minimaster Events",
    "fields": [
        {
            "key": "field_5ac8a386306cc",
            "label": "Events",
            "name": "featured_minimaster_events",
            "type": "relationship",
            "instructions": "The first 4 events will appear in the featured slider on the Minimaster Events page. The total list will be featured in the carousel on the Minimaster Blog.",
            "required": 0,
            "conditional_logic": 0,
            "wrapper": {
                "width": "",
                "class": "",
                "id": ""
            },
            "post_type": [
                "tm_minimaster_event"
            ],
            "taxonomy": [],
            "filters": [
                "search",
                "taxonomy"
            ],
            "elements": "",
            "min": "",
            "max": "",
            "return_format": "object"
        }
    ],
    "location": [
        [
            {
                "param": "page_template",
                "operator": "==",
                "value": "page-templates\/minimaster_events.php"
            }
        ]
    ],
    "menu_order": 0,
    "position": "normal",
    "style": "default",
    "label_placement": "top",
    "instruction_placement": "label",
    "hide_on_screen": "",
    "active": 1,
    "description": "",
    "modified": 1523557945
}