{
    "key": "group_5aca6450b98bd",
    "title": "Sub Navigation",
    "fields": [
        {
            "key": "field_5aca6450c4116",
            "label": "Sub Navigation",
            "name": "sub_navigation",
            "type": "repeater",
            "instructions": "Add up to 5 subcategory links.",
            "required": 0,
            "conditional_logic": 0,
            "wrapper": {
                "width": "",
                "class": "",
                "id": ""
            },
            "collapsed": "",
            "min": 0,
            "max": 5,
            "layout": "block",
            "button_label": "Add Link",
            "sub_fields": [
                {
                    "key": "field_5aca6450d3921",
                    "label": "Link",
                    "name": "link",
                    "type": "link",
                    "instructions": "",
                    "required": 0,
                    "conditional_logic": 0,
                    "wrapper": {
                        "width": "",
                        "class": "",
                        "id": ""
                    },
                    "return_format": "array"
                }
            ]
        }
    ],
    "location": [
        [
            {
                "param": "taxonomy",
                "operator": "==",
                "value": "post_tag"
            }
        ],
        [
            {
                "param": "taxonomy",
                "operator": "==",
                "value": "category"
            }
        ]
    ],
    "menu_order": 0,
    "position": "normal",
    "style": "default",
    "label_placement": "top",
    "instruction_placement": "label",
    "hide_on_screen": "",
    "active": 1,
    "description": "",
    "modified": 1523558125
}